F:\IdeaProjects\DenoCore\src\main\java\fr\denoria\denocore\commands\friends\NickManager.java
F:\IdeaProjects\DenoCore\src\main\java\fr\denoria\denocore\support\builder\InventoryBuilder.java
F:\IdeaProjects\DenoCore\src\main\java\fr\denoria\denocore\support\math\RandomUtils.java
F:\IdeaProjects\DenoCore\src\main\java\fr\denoria\denocore\support\builder\items\heads\Head.java
F:\IdeaProjects\DenoCore\src\main\java\fr\denoria\denocore\commands\PlayerProcessCommandListener.java
F:\IdeaProjects\DenoCore\src\main\java\fr\denoria\denocore\support\npc\NPCInteractCallback.java
F:\IdeaProjects\DenoCore\src\main\java\fr\denoria\denocore\support\task\GTask.java
F:\IdeaProjects\DenoCore\src\main\java\fr\denoria\denocore\support\skin\NickData.java
F:\IdeaProjects\DenoCore\src\main\java\fr\denoria\denocore\support\utils\MysteryBoxUtils.java
F:\IdeaProjects\DenoCore\src\main\java\fr\denoria\denocore\support\utils\UUIDFetcher.java
F:\IdeaProjects\DenoCore\src\main\java\fr\denoria\denocore\denoriaplayer\UUIDFetcher.java
F:\IdeaProjects\DenoCore\src\main\java\fr\denoria\denocore\support\builder\music\noteapi\Interpolator.java
F:\IdeaProjects\DenoCore\src\main\java\fr\denoria\denocore\support\npc\CustomNPC.java
F:\IdeaProjects\DenoCore\src\main\java\fr\denoria\denocore\support\blocks\BlockUtils.java
F:\IdeaProjects\DenoCore\src\main\java\fr\denoria\denocore\bungeecord\listeners\HandshakeFix.java
F:\IdeaProjects\DenoCore\src\main\java\fr\denoria\denocore\support\builder\music\noteapi\SongPlayer.java
F:\IdeaProjects\DenoCore\src\main\java\fr\denoria\denocore\support\particle\ParticleDisplayer.java
F:\IdeaProjects\DenoCore\src\main\java\fr\denoria\denocore\redis\RedisManager.java
F:\IdeaProjects\DenoCore\src\main\java\fr\denoria\denocore\game\GameStatus.java
F:\IdeaProjects\DenoCore\src\main\java\fr\denoria\denocore\listeners\DenoriaPlayerJoinListener.java
F:\IdeaProjects\DenoCore\src\main\java\fr\denoria\denocore\listeners\PlayerChangeSkinEvent.java
F:\IdeaProjects\DenoCore\src\main\java\fr\denoria\denocore\support\builder\music\SoundUtils.java
F:\IdeaProjects\DenoCore\src\main\java\fr\denoria\denocore\network\IFriend.java
F:\IdeaProjects\DenoCore\src\main\java\fr\denoria\denocore\support\utils\DenoriaLogger.java
F:\IdeaProjects\DenoCore\src\main\java\fr\denoria\denocore\support\builder\music\noteapi\Note.java
F:\IdeaProjects\DenoCore\src\main\java\fr\denoria\denocore\support\nbt\NBTInputStream.java
F:\IdeaProjects\DenoCore\src\main\java\fr\denoria\denocore\support\nbt\Tag.java
F:\IdeaProjects\DenoCore\src\main\java\fr\denoria\denocore\commands\mods\HelpChatCommand.java
F:\IdeaProjects\DenoCore\src\main\java\fr\denoria\denocore\support\date\DateFormatType.java
F:\IdeaProjects\DenoCore\src\main\java\fr\denoria\denocore\support\nbt\DoubleTag.java
F:\IdeaProjects\DenoCore\src\main\java\fr\denoria\denocore\commands\misc\SpawnCommand.java
F:\IdeaProjects\DenoCore\src\main\java\fr\denoria\denocore\support\configs\FileManager.java
F:\IdeaProjects\DenoCore\src\main\java\fr\denoria\denocore\support\configs\ConfigManager.java
F:\IdeaProjects\DenoCore\src\main\java\fr\denoria\denocore\support\nbt\FloatTag.java
F:\IdeaProjects\DenoCore\src\main\java\fr\denoria\denocore\denoriaplayer\game\skywars\stats\SkyWarsStatsType.java
F:\IdeaProjects\DenoCore\src\main\java\fr\denoria\denocore\denoriaplayer\game\bedwars\stats\BedWarsStatsType.java
F:\IdeaProjects\DenoCore\src\main\java\fr\denoria\denocore\denoriaplayer\game\skywars\kits\SkyWarsKitsMode.java
F:\IdeaProjects\DenoCore\src\main\java\fr\denoria\denocore\support\npc\NullChannel.java
F:\IdeaProjects\DenoCore\src\main\java\fr\denoria\denocore\redis\RedisDatabase.java
F:\IdeaProjects\DenoCore\src\main\java\fr\denoria\denocore\support\locations\ZoneUtils.java
F:\IdeaProjects\DenoCore\src\main\java\fr\denoria\denocore\support\nbt\EndTag.java
F:\IdeaProjects\DenoCore\src\main\java\fr\denoria\denocore\support\skin\manager\SkinManager.java
F:\IdeaProjects\DenoCore\src\main\java\fr\denoria\denocore\support\skin\manager\TextureType.java
F:\IdeaProjects\DenoCore\src\main\java\fr\denoria\denocore\support\nbt\ListTag.java
F:\IdeaProjects\DenoCore\src\main\java\fr\denoria\denocore\network\infos\NetworkAPI.java
F:\IdeaProjects\DenoCore\src\main\java\fr\denoria\denocore\support\builder\music\noteapi\SongDestroyingEvent.java
F:\IdeaProjects\DenoCore\src\main\java\fr\denoria\denocore\denoriaplayer\discord\ILink.java
F:\IdeaProjects\DenoCore\src\main\java\fr\denoria\denocore\support\gameprofile\GameProfileBuilder.java
F:\IdeaProjects\DenoCore\src\main\java\fr\denoria\denocore\support\MessagesUtils.java
F:\IdeaProjects\DenoCore\src\main\java\fr\denoria\denocore\support\utils\ChestUtils.java
F:\IdeaProjects\DenoCore\src\main\java\fr\denoria\denocore\support\builder\items\heads\ReflectionsHead.java
F:\IdeaProjects\DenoCore\src\main\java\fr\denoria\denocore\support\gameprofile\ProfileLoader.java
F:\IdeaProjects\DenoCore\src\main\java\fr\denoria\denocore\support\server\SwitchServer.java
F:\IdeaProjects\DenoCore\src\main\java\fr\denoria\denocore\support\utils\PermissionEnum.java
F:\IdeaProjects\DenoCore\src\main\java\fr\denoria\denocore\denoriaplayer\misc\IPermissions.java
F:\IdeaProjects\DenoCore\src\main\java\fr\denoria\denocore\support\builder\music\noteapi\SongStoppedEvent.java
F:\IdeaProjects\DenoCore\src\main\java\fr\denoria\denocore\support\locations\LocationUtils.java
F:\IdeaProjects\DenoCore\src\main\java\fr\denoria\denocore\support\npc\VoidPlayerConnection.java
F:\IdeaProjects\DenoCore\src\main\java\fr\denoria\denocore\support\builder\music\noteapi\NoteBlockPlayerMain.java
F:\IdeaProjects\DenoCore\src\main\java\fr\denoria\denocore\commands\admin\RankCommand.java
F:\IdeaProjects\DenoCore\src\main\java\fr\denoria\denocore\support\builder\music\noteapi\RadioSongPlayer.java
F:\IdeaProjects\DenoCore\src\main\java\fr\denoria\denocore\support\nbt\ByteArrayTag.java
F:\IdeaProjects\DenoCore\src\main\java\fr\denoria\denocore\denoriaplayer\level\ILevelExperience.java
F:\IdeaProjects\DenoCore\src\main\java\fr\denoria\denocore\support\nbt\NBTConstants.java
F:\IdeaProjects\DenoCore\src\main\java\fr\denoria\denocore\denoriaplayer\game\bedwars\stats\BedWarsStatsMode.java
F:\IdeaProjects\DenoCore\src\main\java\fr\denoria\denocore\support\builder\music\noteapi\FadeType.java
F:\IdeaProjects\DenoCore\src\main\java\fr\denoria\denocore\commands\mods\KickCommand.java
F:\IdeaProjects\DenoCore\src\main\java\fr\denoria\denocore\commands\mods\mute\MuteCommand.java
F:\IdeaProjects\DenoCore\src\main\java\fr\denoria\denocore\support\builder\music\noteapi\NoteBlockSongPlayer.java
F:\IdeaProjects\DenoCore\src\main\java\fr\denoria\denocore\support\packets\Reflection.java
F:\IdeaProjects\DenoCore\src\main\java\fr\denoria\denocore\support\pvp\KnockBack.java
F:\IdeaProjects\DenoCore\src\main\java\fr\denoria\denocore\support\utils\Callback.java
F:\IdeaProjects\DenoCore\src\main\java\fr\denoria\denocore\denoriaplayer\game\skywars\stats\SkyWarsStatsMode.java
F:\IdeaProjects\DenoCore\src\main\java\fr\denoria\denocore\support\builder\JsonMessageBuilder.java
F:\IdeaProjects\DenoCore\src\main\java\fr\denoria\denocore\support\nbt\ByteTag.java
F:\IdeaProjects\DenoCore\src\main\java\fr\denoria\denocore\bungeecord\listeners\ProxyListPingListener.java
F:\IdeaProjects\DenoCore\src\main\java\fr\denoria\denocore\support\skin\manager\SharedApplier.java
F:\IdeaProjects\DenoCore\src\main\java\fr\denoria\denocore\commands\nick\NickPseudoEnum.java
F:\IdeaProjects\DenoCore\src\main\java\fr\denoria\denocore\denoriaplayer\game\skywars\perks\ISkyWarsPerks.java
F:\IdeaProjects\DenoCore\src\main\java\fr\denoria\denocore\game\GameType.java
F:\IdeaProjects\DenoCore\src\main\java\fr\denoria\denocore\support\particle\ReflectionUtils.java
F:\IdeaProjects\DenoCore\src\main\java\fr\denoria\denocore\support\skin\Base64Utils.java
F:\IdeaProjects\DenoCore\src\main\java\fr\denoria\denocore\commands\AbstractCommand.java
F:\IdeaProjects\DenoCore\src\main\java\fr\denoria\denocore\commands\misc\ReportCommand.java
F:\IdeaProjects\DenoCore\src\main\java\fr\denoria\denocore\commands\mods\mute\UnmuteCommand.java
F:\IdeaProjects\DenoCore\src\main\java\fr\denoria\denocore\support\builder\music\noteapi\NBSDecoder.java
F:\IdeaProjects\DenoCore\src\main\java\fr\denoria\denocore\support\skin\manager\UUIDTypeAdapter.java
F:\IdeaProjects\DenoCore\src\main\java\fr\denoria\denocore\support\server\ServerInstance.java
F:\IdeaProjects\DenoCore\src\main\java\fr\denoria\denocore\denoriaplayer\game\bedwars\BedWarsPlayer.java
F:\IdeaProjects\DenoCore\src\main\java\fr\denoria\denocore\support\math\VelocityUtils.java
F:\IdeaProjects\DenoCore\src\main\java\fr\denoria\denocore\support\server\InstanceEnum.java
F:\IdeaProjects\DenoCore\src\main\java\fr\denoria\denocore\support\packets\utils\NMS.java
F:\IdeaProjects\DenoCore\src\main\java\fr\denoria\denocore\support\builder\WorldborderBuilder.java
F:\IdeaProjects\DenoCore\src\main\java\fr\denoria\denocore\bungeecord\IBungeePlayer.java
F:\IdeaProjects\DenoCore\src\main\java\fr\denoria\denocore\support\world\WorldManager.java
F:\IdeaProjects\DenoCore\src\main\java\fr\denoria\denocore\commands\staff\FlyCommand.java
F:\IdeaProjects\DenoCore\src\main\java\fr\denoria\denocore\support\builder\music\noteapi\Layer.java
F:\IdeaProjects\DenoCore\src\main\java\fr\denoria\denocore\commands\misc\LobbyCommand.java
F:\IdeaProjects\DenoCore\src\main\java\fr\denoria\denocore\support\builder\music\noteapi\PositionSongPlayer.java
F:\IdeaProjects\DenoCore\src\main\java\fr\denoria\denocore\support\Reflection.java
F:\IdeaProjects\DenoCore\src\main\java\fr\denoria\denocore\support\skin\manager\SkinProperty.java
F:\IdeaProjects\DenoCore\src\main\java\fr\denoria\denocore\mysql\SQLManager.java
F:\IdeaProjects\DenoCore\src\main\java\fr\denoria\denocore\support\builder\Title.java
F:\IdeaProjects\DenoCore\src\main\java\fr\denoria\denocore\support\packets\ChannelHandler.java
F:\IdeaProjects\DenoCore\src\main\java\fr\denoria\denocore\commands\mods\AFKCommand.java
F:\IdeaProjects\DenoCore\src\main\java\fr\denoria\denocore\denoriaplayer\infos\DataType.java
F:\IdeaProjects\DenoCore\src\main\java\fr\denoria\denocore\commands\temp\ListWorlds.java
F:\IdeaProjects\DenoCore\src\main\java\fr\denoria\denocore\denoriaplayer\level\LevelMechanic.java
F:\IdeaProjects\DenoCore\src\main\java\fr\denoria\denocore\support\utils\CheckForExistingLinkRequest.java
F:\IdeaProjects\DenoCore\src\main\java\fr\denoria\denocore\bungeecord\commands\StaffChatCommand.java
F:\IdeaProjects\DenoCore\src\main\java\fr\denoria\denocore\network\IBan.java
F:\IdeaProjects\DenoCore\src\main\java\fr\denoria\denocore\support\nbt\StringTag.java
F:\IdeaProjects\DenoCore\src\main\java\fr\denoria\denocore\support\task\GDelayLauncher.java
F:\IdeaProjects\DenoCore\src\main\java\fr\denoria\denocore\support\npc\Hologram.java
F:\IdeaProjects\DenoCore\src\main\java\fr\denoria\denocore\bungeecord\DenoriaBungeeDatabase.java
F:\IdeaProjects\DenoCore\src\main\java\fr\denoria\denocore\denoriaplayer\infos\IData.java
F:\IdeaProjects\DenoCore\src\main\java\fr\denoria\denocore\bungeecord\commands\ServerCommand.java
F:\IdeaProjects\DenoCore\src\main\java\fr\denoria\denocore\support\utils\DefaultFontInfo.java
F:\IdeaProjects\DenoCore\src\main\java\fr\denoria\denocore\support\builder\items\heads\CustomSkull.java
F:\IdeaProjects\DenoCore\src\main\java\fr\denoria\denocore\support\packets\packetlist\PacketType.java
F:\IdeaProjects\DenoCore\src\main\java\fr\denoria\denocore\bungeecord\commands\StaffCommand.java
F:\IdeaProjects\DenoCore\src\main\java\fr\denoria\denocore\support\builder\items\heads\HeadBuilder.java
F:\IdeaProjects\DenoCore\src\main\java\fr\denoria\denocore\mysql\SQLDatabase.java
F:\IdeaProjects\DenoCore\src\main\java\fr\denoria\denocore\support\boards\ScoreboardWrapper.java
F:\IdeaProjects\DenoCore\src\main\java\fr\denoria\denocore\denoriaplayer\level\LevelType.java
F:\IdeaProjects\DenoCore\src\main\java\fr\denoria\denocore\support\locations\Cuboid.java
F:\IdeaProjects\DenoCore\src\main\java\fr\denoria\denocore\denoriaplayer\currency\Currency.java
F:\IdeaProjects\DenoCore\src\main\java\fr\denoria\denocore\support\packets\DenoriaPacketHandler.java
F:\IdeaProjects\DenoCore\src\main\java\fr\denoria\denocore\commands\mods\SlowChatCommand.java
F:\IdeaProjects\DenoCore\src\main\java\fr\denoria\denocore\support\packets\Packet.java
F:\IdeaProjects\DenoCore\src\main\java\fr\denoria\denocore\support\builder\music\noteapi\NotePitch.java
F:\IdeaProjects\DenoCore\src\main\java\fr\denoria\denocore\denoriaplayer\game\skywars\kits\SkyWarsKitsType.java
F:\IdeaProjects\DenoCore\src\main\java\fr\denoria\denocore\support\task\GTimerLauncher.java
F:\IdeaProjects\DenoCore\src\main\java\fr\denoria\denocore\support\text\ChatComponentExtra.java
F:\IdeaProjects\DenoCore\src\main\java\fr\denoria\denocore\support\nbt\IntTag.java
F:\IdeaProjects\DenoCore\src\main\java\fr\denoria\denocore\support\builder\items\fireworks\FireworksBuilder.java
F:\IdeaProjects\DenoCore\src\main\java\fr\denoria\denocore\network\IMute.java
F:\IdeaProjects\DenoCore\src\main\java\fr\denoria\denocore\support\builder\EntityBuilder.java
F:\IdeaProjects\DenoCore\src\main\java\fr\denoria\denocore\commands\admin\ModBroadcastCommand.java
F:\IdeaProjects\DenoCore\src\main\java\fr\denoria\denocore\support\utils\HttpClient.java
F:\IdeaProjects\DenoCore\src\main\java\fr\denoria\denocore\support\skin\manager\UserPreference.java
F:\IdeaProjects\DenoCore\src\main\java\fr\denoria\denocore\bungeecord\channels\ChannelSMEnum.java
F:\IdeaProjects\DenoCore\src\main\java\fr\denoria\denocore\bungeecord\commands\LookUpCommand.java
F:\IdeaProjects\DenoCore\src\main\java\fr\denoria\denocore\listeners\DenoriaPlayerChatListener.java
F:\IdeaProjects\DenoCore\src\main\java\fr\denoria\denocore\support\builder\items\PotionBuilder.java
F:\IdeaProjects\DenoCore\src\main\java\fr\denoria\denocore\denoriaplayer\game\skywars\perks\SkyWarsPerksType.java
F:\IdeaProjects\DenoCore\src\main\java\fr\denoria\denocore\denoriaplayer\infos\Langues.java
F:\IdeaProjects\DenoCore\src\main\java\fr\denoria\denocore\support\world\ChunkManager.java
F:\IdeaProjects\DenoCore\src\main\java\fr\denoria\denocore\denoriaplayer\rank\RANKSPECIAL.java
F:\IdeaProjects\DenoCore\src\main\java\fr\denoria\denocore\support\builder\SpawnersAPI.java
F:\IdeaProjects\DenoCore\src\main\java\fr\denoria\denocore\bungeecord\channels\ChannelListener.java
F:\IdeaProjects\DenoCore\src\main\java\fr\denoria\denocore\network\infos\NetworkType.java
F:\IdeaProjects\DenoCore\src\main\java\fr\denoria\denocore\bungeecord\commands\ListCommand.java
F:\IdeaProjects\DenoCore\src\main\java\fr\denoria\denocore\support\skin\SkinData.java
F:\IdeaProjects\DenoCore\src\main\java\fr\denoria\denocore\support\utils\SoundUtils.java
F:\IdeaProjects\DenoCore\src\main\java\fr\denoria\denocore\commands\mods\LocalBroadcastCommand.java
F:\IdeaProjects\DenoCore\src\main\java\fr\denoria\denocore\support\packets\DenoriaPackets.java
F:\IdeaProjects\DenoCore\src\main\java\fr\denoria\denocore\denoriaplayer\game\skywars\SkyWarsPlayer.java
F:\IdeaProjects\DenoCore\src\main\java\fr\denoria\denocore\support\builder\music\NoteUtils.java
F:\IdeaProjects\DenoCore\src\main\java\fr\denoria\denocore\denoriaplayer\game\GameCosmeticPowerType.java
F:\IdeaProjects\DenoCore\src\main\java\fr\denoria\denocore\bungeecord\listeners\PostLoginListener.java
F:\IdeaProjects\DenoCore\src\main\java\fr\denoria\denocore\commands\admin\SpecialRankCommand.java
F:\IdeaProjects\DenoCore\src\main\java\fr\denoria\denocore\listeners\DenoriaPlayerLeftListener.java
F:\IdeaProjects\DenoCore\src\main\java\fr\denoria\denocore\mysql\DatabaseCredentials.java
F:\IdeaProjects\DenoCore\src\main\java\fr\denoria\denocore\commands\mods\TeleportCommand.java
F:\IdeaProjects\DenoCore\src\main\java\fr\denoria\denocore\support\blocks\TreeCapitor.java
F:\IdeaProjects\DenoCore\src\main\java\fr\denoria\denocore\support\FunctionRaccourcie.java
F:\IdeaProjects\DenoCore\src\main\java\fr\denoria\denocore\support\packets\Response.java
F:\IdeaProjects\DenoCore\src\main\java\fr\denoria\denocore\commands\nick\nickadmCommand.java
F:\IdeaProjects\DenoCore\src\main\java\fr\denoria\denocore\support\npc\NPCManager.java
F:\IdeaProjects\DenoCore\src\main\java\fr\denoria\denocore\commands\admin\PermissionCommand.java
F:\IdeaProjects\DenoCore\src\main\java\fr\denoria\denocore\support\builder\items\BannerBuilder.java
F:\IdeaProjects\DenoCore\src\main\java\fr\denoria\denocore\support\builder\items\fireworks\FireworkUtils.java
F:\IdeaProjects\DenoCore\src\main\java\fr\denoria\denocore\support\packets\utils\ReflectionUtil.java
F:\IdeaProjects\DenoCore\src\main\java\fr\denoria\denocore\denoriaplayer\currency\ICurrency.java
F:\IdeaProjects\DenoCore\src\main\java\fr\denoria\denocore\support\utils\NameChanger.java
F:\IdeaProjects\DenoCore\src\main\java\fr\denoria\denocore\denoriaplayer\game\skywars\perks\SkyWarsPerksMode.java
F:\IdeaProjects\DenoCore\src\main\java\fr\denoria\denocore\commands\nick\NickListCommand.java
F:\IdeaProjects\DenoCore\src\main\java\fr\denoria\denocore\support\builder\music\noteapi\Instrument.java
F:\IdeaProjects\DenoCore\src\main\java\fr\denoria\denocore\support\tutorials\Tutorial.java
F:\IdeaProjects\DenoCore\src\main\java\fr\denoria\denocore\support\server\ServerNetworkManager.java
F:\IdeaProjects\DenoCore\src\main\java\fr\denoria\denocore\game\GameInterceptor.java
F:\IdeaProjects\DenoCore\src\main\java\fr\denoria\denocore\support\boards\TeamsTagsManager.java
F:\IdeaProjects\DenoCore\src\main\java\fr\denoria\denocore\support\skin\manager\LegacyTextureAdapter.java
F:\IdeaProjects\DenoCore\src\main\java\fr\denoria\denocore\bungeecord\channels\ChannelEnum.java
F:\IdeaProjects\DenoCore\src\main\java\fr\denoria\denocore\support\builder\items\BookBuilder.java
F:\IdeaProjects\DenoCore\src\main\java\fr\denoria\denocore\support\nbt\CompoundTag.java
F:\IdeaProjects\DenoCore\src\main\java\fr\denoria\denocore\commands\mods\DenoriaTeleportCommand.java
F:\IdeaProjects\DenoCore\src\main\java\fr\denoria\denocore\support\math\MathUtils.java
F:\IdeaProjects\DenoCore\src\main\java\fr\denoria\denocore\bungeecord\listeners\ProxiedPlayerDisconnectListener.java
F:\IdeaProjects\DenoCore\src\main\java\fr\denoria\denocore\support\nbt\ShortTag.java
F:\IdeaProjects\DenoCore\src\main\java\fr\denoria\denocore\denoriaplayer\game\bedwars\stats\iBedWarsStats.java
F:\IdeaProjects\DenoCore\src\main\java\fr\denoria\denocore\support\GameStatus.java
F:\IdeaProjects\DenoCore\src\main\java\fr\denoria\denocore\support\builder\items\ItemBuilder.java
F:\IdeaProjects\DenoCore\src\main\java\fr\denoria\denocore\support\builder\music\MusicUtils.java
F:\IdeaProjects\DenoCore\src\main\java\fr\denoria\denocore\support\task\GDelayTask.java
F:\IdeaProjects\DenoCore\src\main\java\fr\denoria\denocore\support\builder\music\noteapi\SongEndEvent.java
F:\IdeaProjects\DenoCore\src\main\java\fr\denoria\denocore\support\utils\SkinCache.java
F:\IdeaProjects\DenoCore\src\main\java\fr\denoria\denocore\denoriaplayer\game\skywars\kits\ISkyWarsKits.java
F:\IdeaProjects\DenoCore\src\main\java\fr\denoria\denocore\bungeecord\commands\BroadcastCommand.java
F:\IdeaProjects\DenoCore\src\main\java\fr\denoria\denocore\DenoCore.java
F:\IdeaProjects\DenoCore\src\main\java\fr\denoria\denocore\denoriaplayer\DenoriaPlayerInfo.java
F:\IdeaProjects\DenoCore\src\main\java\fr\denoria\denocore\support\schematic\SchematicUtils.java
F:\IdeaProjects\DenoCore\src\main\java\fr\denoria\denocore\support\tutorials\TutorialChapter.java
F:\IdeaProjects\DenoCore\src\main\java\fr\denoria\denocore\support\skin\Packets.java
F:\IdeaProjects\DenoCore\src\main\java\fr\denoria\denocore\support\date\DateUtils.java
F:\IdeaProjects\DenoCore\src\main\java\fr\denoria\denocore\commands\misc\LagCommand.java
F:\IdeaProjects\DenoCore\src\main\java\fr\denoria\denocore\support\builder\music\noteapi\Song.java
F:\IdeaProjects\DenoCore\src\main\java\fr\denoria\denocore\support\skin\manager\TextureModel.java
F:\IdeaProjects\DenoCore\src\main\java\fr\denoria\denocore\listeners\DenoriaPlayerTabComplete.java
F:\IdeaProjects\DenoCore\src\main\java\fr\denoria\denocore\denoriaplayer\rank\Rank.java
F:\IdeaProjects\DenoCore\src\main\java\fr\denoria\denocore\commands\nick\NickManager.java
F:\IdeaProjects\DenoCore\src\main\java\fr\denoria\denocore\support\builder\TitleBuilder.java
F:\IdeaProjects\DenoCore\src\main\java\fr\denoria\denocore\bungeecord\commands\party\PartyCommand.java
F:\IdeaProjects\DenoCore\src\main\java\fr\denoria\denocore\support\packets\TinyProtocol.java
F:\IdeaProjects\DenoCore\src\main\java\fr\denoria\denocore\support\tutorials\TutorialRunner.java
F:\IdeaProjects\DenoCore\src\main\java\fr\denoria\denocore\support\task\GTimerTask.java
F:\IdeaProjects\DenoCore\src\main\java\fr\denoria\denocore\support\builder\items\fireworks\FireworkBuilder.java
F:\IdeaProjects\DenoCore\src\main\java\fr\denoria\denocore\commands\admin\CurrencyCommand.java
F:\IdeaProjects\DenoCore\src\main\java\fr\denoria\denocore\support\utils\GameProfileBuilder.java
F:\IdeaProjects\DenoCore\src\main\java\fr\denoria\denocore\support\nbt\NBTUtils.java
F:\IdeaProjects\DenoCore\src\main\java\fr\denoria\denocore\bungeecord\commands\party\PartyUtils.java
F:\IdeaProjects\DenoCore\src\main\java\fr\denoria\denocore\support\nbt\LongTag.java
F:\IdeaProjects\DenoCore\src\main\java\fr\denoria\denocore\support\particle\ParticleEffect.java
F:\IdeaProjects\DenoCore\src\main\java\fr\denoria\denocore\redis\spigot\RedisPubSubSpigot.java
F:\IdeaProjects\DenoCore\src\main\java\fr\denoria\denocore\support\packets\packetlist\PacketBuild.java
F:\IdeaProjects\DenoCore\src\main\java\fr\denoria\denocore\support\skin\manager\TexturesModel.java
F:\IdeaProjects\DenoCore\src\main\java\fr\denoria\denocore\support\world\ChunkLoader.java
F:\IdeaProjects\DenoCore\src\main\java\fr\denoria\denocore\support\npc\NametagEntity.java
F:\IdeaProjects\DenoCore\src\main\java\fr\denoria\denocore\support\npc\NullSocketAddress.java
F:\IdeaProjects\DenoCore\src\main\java\fr\denoria\denocore\support\CallBack.java
F:\IdeaProjects\DenoCore\src\main\java\fr\denoria\denocore\bungeecord\commands\party\PartyManager.java
F:\IdeaProjects\DenoCore\src\main\java\fr\denoria\denocore\support\schematic\Schematic.java
F:\IdeaProjects\DenoCore\src\main\java\fr\denoria\denocore\commands\nick\NickCommand.java
F:\IdeaProjects\DenoCore\src\main\java\fr\denoria\denocore\support\nbt\NBTOutputStream.java
F:\IdeaProjects\DenoCore\src\main\java\fr\denoria\denocore\support\packets\ListenerList.java
F:\IdeaProjects\DenoCore\src\main\java\fr\denoria\denocore\support\npc\SkinEnum.java
F:\IdeaProjects\DenoCore\src\main\java\fr\denoria\denocore\denoriaplayer\rank\IRank.java
F:\IdeaProjects\DenoCore\src\main\java\fr\denoria\denocore\commands\friends\FriendsCommand.java
F:\IdeaProjects\DenoCore\src\main\java\fr\denoria\denocore\denoriaplayer\game\skywars\stats\ISkyWarsStats.java
F:\IdeaProjects\DenoCore\src\main\java\fr\denoria\denocore\network\infos\INetwork.java
F:\IdeaProjects\DenoCore\src\main\java\fr\denoria\denocore\support\text\ChatComponent.java
F:\IdeaProjects\DenoCore\src\main\java\fr\denoria\denocore\bungeecord\commands\MaintenanceCommand.java
F:\IdeaProjects\DenoCore\src\main\java\fr\denoria\denocore\denoriaplayer\DenoriaPlayer.java
F:\IdeaProjects\DenoCore\src\main\java\fr\denoria\denocore\support\skin\manager\SkinModel.java
F:\IdeaProjects\DenoCore\src\main\java\fr\denoria\denocore\bungeecord\commands\LinkCommand.java
F:\IdeaProjects\DenoCore\src\main\java\fr\denoria\denocore\commands\temp\ListNPC.java
F:\IdeaProjects\DenoCore\src\main\java\fr\denoria\denocore\commands\msg\MessagePrivateCommand.java
F:\IdeaProjects\DenoCore\src\main\java\fr\denoria\denocore\support\math\Chrono.java
